<svg width="24" height="25" viewBox="0 0 24 25" fill="none" xmlns="http://www.w3.org/2000/svg">
<g clip-path="url(#clip0_10887_10779)">
<path d="M6 0.5C5.175 0.5 4.5 1.175 4.5 2V23C4.5 23.825 5.175 24.5 6 24.5H21C21.825 24.5 22.5 23.825 22.5 23V6.5L16.5 0.5H6Z" fill="#E2E5E7"/>
<path d="M18 6.5H22.5L16.5 0.5V5C16.5 5.825 17.175 6.5 18 6.5Z" fill="#B0B7BD"/>
<path d="M22.5 11L18 6.5H22.5V11Z" fill="#CAD1D8"/>
<path d="M19.5 20C19.5 20.4125 19.1625 20.75 18.75 20.75H2.25C1.8375 20.75 1.5 20.4125 1.5 20V12.5C1.5 12.0875 1.8375 11.75 2.25 11.75H18.75C19.1625 11.75 19.5 12.0875 19.5 12.5V20Z" fill="#9646EF"/>
<path d="M18.75 20.75H4.5V21.5H18.75C19.1625 21.5 19.5 21.1625 19.5 20.75V20C19.5 20.4125 19.1625 20.75 18.75 20.75Z" fill="#CAD1D8"/>
<path d="M7.78 14.495C7.98333 14.495 8.16167 14.5383 8.315 14.625C8.47167 14.7083 8.59167 14.8267 8.675 14.98C8.76167 15.1333 8.805 15.31 8.805 15.51C8.805 15.71 8.76167 15.885 8.675 16.035C8.58833 16.185 8.465 16.3017 8.305 16.385C8.14833 16.4683 7.96667 16.51 7.76 16.51H6.88C6.86667 16.51 6.86 16.5167 6.86 16.53V17.95C6.86 17.9833 6.84333 18 6.81 18H6.43C6.39667 18 6.38 17.9833 6.38 17.95V14.545C6.38 14.5117 6.39667 14.495 6.43 14.495H7.78ZM7.715 16.12C7.89833 16.12 8.045 16.065 8.155 15.955C8.26833 15.845 8.325 15.7 8.325 15.52C8.325 15.3367 8.26833 15.19 8.155 15.08C8.045 14.9667 7.89833 14.91 7.715 14.91H6.88C6.86667 14.91 6.86 14.9167 6.86 14.93V16.1C6.86 16.1133 6.86667 16.12 6.88 16.12H7.715ZM11.4339 14.55C11.4339 14.5167 11.4505 14.5 11.4839 14.5H11.8639C11.8972 14.5 11.9139 14.5167 11.9139 14.55V17.95C11.9139 17.9833 11.8972 18 11.8639 18H11.4989C11.4755 18 11.4555 17.9883 11.4389 17.965L9.87387 15.41C9.87053 15.4 9.86553 15.3967 9.85887 15.4C9.8522 15.4 9.84887 15.405 9.84887 15.415L9.85387 17.95C9.85387 17.9833 9.8372 18 9.80387 18H9.42387C9.39053 18 9.37387 17.9833 9.37387 17.95V14.55C9.37387 14.5167 9.39053 14.5 9.42387 14.5H9.79387C9.8172 14.5 9.8372 14.5117 9.85387 14.535L11.4139 17.09C11.4172 17.1 11.4222 17.105 11.4289 17.105C11.4355 17.1017 11.4389 17.095 11.4389 17.085L11.4339 14.55ZM13.8631 18.04C13.6231 18.04 13.4098 17.9933 13.2231 17.9C13.0398 17.8033 12.8965 17.6683 12.7931 17.495C12.6931 17.3183 12.6431 17.1167 12.6431 16.89V15.61C12.6431 15.38 12.6931 15.1783 12.7931 15.005C12.8965 14.8317 13.0398 14.6983 13.2231 14.605C13.4098 14.5083 13.6231 14.46 13.8631 14.46C14.1031 14.46 14.3148 14.5067 14.4981 14.6C14.6815 14.6933 14.8231 14.8233 14.9231 14.99C15.0265 15.1533 15.0781 15.3383 15.0781 15.545V15.6C15.0781 15.6333 15.0615 15.65 15.0281 15.65H14.6481C14.6148 15.65 14.5981 15.6333 14.5981 15.6V15.555C14.5981 15.355 14.5298 15.1933 14.3931 15.07C14.2598 14.9433 14.0831 14.88 13.8631 14.88C13.6398 14.88 13.4598 14.945 13.3231 15.075C13.1898 15.205 13.1231 15.3783 13.1231 15.595V16.905C13.1231 17.1217 13.1931 17.295 13.3331 17.425C13.4731 17.555 13.6565 17.62 13.8831 17.62C14.1031 17.62 14.2765 17.5633 14.4031 17.45C14.5331 17.3333 14.5981 17.175 14.5981 16.975V16.59C14.5981 16.5767 14.5915 16.57 14.5781 16.57H13.9031C13.8698 16.57 13.8531 16.5533 13.8531 16.52V16.21C13.8531 16.1767 13.8698 16.16 13.9031 16.16H15.0281C15.0615 16.16 15.0781 16.1767 15.0781 16.21V16.845C15.0781 17.2283 14.9681 17.5233 14.7481 17.73C14.5315 17.9367 14.2365 18.04 13.8631 18.04Z" fill="white"/>
</g>
<defs>
<clipPath id="clip0_10887_10779">
<rect width="24" height="24" fill="white" transform="translate(0 0.5)"/>
</clipPath>
</defs>
</svg>
