<svg width="25" height="16" viewBox="0 0 25 16" fill="none" xmlns="http://www.w3.org/2000/svg">
<path d="M1.43279 13.663L12.155 0.397697L22.8772 13.663L12.304 5.81443L12.155 5.70381L12.006 5.81443L1.43279 13.663Z" fill="#00F0FF" stroke="#222631" stroke-width="0.5"/>
</svg>
