<svg width="16" height="15" viewBox="0 0 16 15" fill="none" xmlns="http://www.w3.org/2000/svg">
<path fill-rule="evenodd" clip-rule="evenodd" d="M8.45454 0H7.54545L7.08084 0.989177L7.10986 0.97242L7.56112 1.94836L7.56699 1.93548L8.39679 3.7557L13.5786 14.9626L13.5138 15H15.5L8.45454 0ZM0.5 15L6.60815 1.99556L7.07717 3.00993L1.94199 14.2742H12.2855L12.6211 15H0.5Z" fill="#B0BEC5"/>
</svg>
