<svg width="17" height="17" viewBox="0 0 17 17" fill="none" xmlns="http://www.w3.org/2000/svg">
<path d="M16.5486 6.72286L0.86487 0.351354C0.539027 0.21898 0.213248 0.541323 0.342157 0.868552L6.5031 16.5079C6.65581 16.8955 7.22546 16.8206 7.27269 16.4066L8.14578 8.75337C8.16688 8.56844 8.31275 8.4225 8.49767 8.40131L16.4436 7.49084C16.8551 7.44368 16.9324 6.87878 16.5486 6.72286Z" fill="#00F0FF"/>
</svg>
