<svg width="18" height="18" viewBox="0 0 18 18" fill="none" xmlns="http://www.w3.org/2000/svg">
<path d="M3 2H15.5" stroke="#00F0FF" stroke-width="2"/>
<path d="M3 16H14.5" stroke="#00F0FF" stroke-width="2"/>
<path d="M2 4V14" stroke="#00F0FF" stroke-width="2"/>
<path d="M16 4V14" stroke="#00F0FF" stroke-width="2"/>
<path fill-rule="evenodd" clip-rule="evenodd" d="M1 0C0.447715 0 0 0.447715 0 1V3C0 3.55228 0.447715 4 1 4H3C3.55228 4 4 3.55228 4 3V1C4 0.447715 3.55228 0 3 0H1ZM1.8 1.5C1.63431 1.5 1.5 1.63431 1.5 1.8V2.2C1.5 2.36569 1.63431 2.5 1.8 2.5H2.2C2.36569 2.5 2.5 2.36569 2.5 2.2V1.8C2.5 1.63431 2.36569 1.5 2.2 1.5H1.8Z" fill="#00F0FF"/>
<path fill-rule="evenodd" clip-rule="evenodd" d="M15 0C14.4477 0 14 0.447715 14 1V3C14 3.55228 14.4477 4 15 4H17C17.5523 4 18 3.55228 18 3V1C18 0.447715 17.5523 0 17 0H15ZM15.8 1.5C15.6343 1.5 15.5 1.63431 15.5 1.8V2.2C15.5 2.36569 15.6343 2.5 15.8 2.5H16.2C16.3657 2.5 16.5 2.36569 16.5 2.2V1.8C16.5 1.63431 16.3657 1.5 16.2 1.5H15.8Z" fill="#00F0FF"/>
<path fill-rule="evenodd" clip-rule="evenodd" d="M15 14C14.4477 14 14 14.4477 14 15V17C14 17.5523 14.4477 18 15 18H17C17.5523 18 18 17.5523 18 17V15C18 14.4477 17.5523 14 17 14H15ZM15.8 15.5C15.6343 15.5 15.5 15.6343 15.5 15.8V16.2C15.5 16.3657 15.6343 16.5 15.8 16.5H16.2C16.3657 16.5 16.5 16.3657 16.5 16.2V15.8C16.5 15.6343 16.3657 15.5 16.2 15.5H15.8Z" fill="#00F0FF"/>
<path fill-rule="evenodd" clip-rule="evenodd" d="M1 14C0.447715 14 0 14.4477 0 15V17C0 17.5523 0.447715 18 1 18H3C3.55228 18 4 17.5523 4 17V15C4 14.4477 3.55228 14 3 14H1ZM1.8 15.5C1.63431 15.5 1.5 15.6343 1.5 15.8V16.2C1.5 16.3657 1.63431 16.5 1.8 16.5H2.2C2.36569 16.5 2.5 16.3657 2.5 16.2V15.8C2.5 15.6343 2.36569 15.5 2.2 15.5H1.8Z" fill="#00F0FF"/>
</svg>
