<svg width="22" height="22" viewBox="0 0 22 22" fill="none" xmlns="http://www.w3.org/2000/svg">
<path d="M17.4167 19.25H4.58333C4.0971 19.25 3.63079 19.0568 3.28697 18.713C2.94315 18.3692 2.75 17.9029 2.75 17.4167V4.58333C2.75 4.0971 2.94315 3.63079 3.28697 3.28697C3.63079 2.94315 4.0971 2.75 4.58333 2.75H14.6667L19.25 7.33333V17.4167C19.25 17.9029 19.0568 18.3692 18.713 18.713C18.3692 19.0568 17.9029 19.25 17.4167 19.25Z" stroke="#B0BEC5" stroke-width="2" stroke-linecap="round" stroke-linejoin="round"/>
<path d="M15.5846 19.2474V11.9141H6.41797V19.2474" stroke="#B0BEC5" stroke-width="2" stroke-linecap="round" stroke-linejoin="round"/>
<path d="M6.41797 2.75V7.33333H13.7513" stroke="#B0BEC5" stroke-width="2" stroke-linecap="round" stroke-linejoin="round"/>
</svg>
