<svg width="14" height="15" viewBox="0 0 14 15" fill="none" xmlns="http://www.w3.org/2000/svg">
<path d="M4.11788 14.2599H9.88728C10.8541 14.2599 11.4756 13.6761 11.5258 12.7093L11.9464 3.66909H12.637C12.9572 3.66909 13.202 3.41797 13.202 3.10407C13.202 2.79018 12.9509 2.55162 12.637 2.55162H9.84961V1.60993C9.84961 0.643136 9.23437 0.078125 8.18597 0.078125H5.80036C4.75195 0.078125 4.13672 0.643136 4.13672 1.60993V2.55162H1.36189C1.04799 2.55162 0.796875 2.79646 0.796875 3.10407C0.796875 3.42425 1.04799 3.66909 1.36189 3.66909H2.05246L2.47307 12.7093C2.5233 13.6823 3.13853 14.2599 4.11788 14.2599ZM5.31069 1.66643C5.31069 1.34626 5.53669 1.13909 5.88198 1.13909H8.10435C8.44964 1.13909 8.67564 1.34626 8.67564 1.66643V2.55162H5.31069V1.66643ZM4.24344 13.1362C3.89816 13.1362 3.64704 12.8788 3.62821 12.5084L3.20759 3.66909H10.7725L10.3644 12.5084C10.3518 12.885 10.107 13.1362 9.74916 13.1362H4.24344ZM5.14746 12.1254C5.41741 12.1254 5.58691 11.9559 5.58064 11.7048L5.3923 5.13811C5.38602 4.887 5.21024 4.72377 4.95285 4.72377C4.68917 4.72377 4.51967 4.89328 4.52595 5.14439L4.71429 11.7111C4.72056 11.9622 4.89634 12.1254 5.14746 12.1254ZM6.99944 12.1254C7.26311 12.1254 7.44517 11.9622 7.44517 11.7111V5.14439C7.44517 4.89328 7.26311 4.72377 6.99944 4.72377C6.73577 4.72377 6.55999 4.89328 6.55999 5.14439V11.7111C6.55999 11.9622 6.73577 12.1254 6.99944 12.1254ZM8.85142 12.1317C9.10254 12.1317 9.27832 11.9622 9.2846 11.7111L9.47293 5.14439C9.47921 4.89328 9.30971 4.73005 9.04604 4.73005C8.78864 4.73005 8.61286 4.89328 8.60658 5.14439L8.41825 11.7111C8.41197 11.9559 8.58147 12.1317 8.85142 12.1317Z" fill="white"/>
</svg>
