<svg width="41" height="41" viewBox="0 0 41 41" fill="none" xmlns="http://www.w3.org/2000/svg">
<rect y="0.5" width="41" height="40" rx="20" fill="#06F7A1"/>
<path fill-rule="evenodd" clip-rule="evenodd" d="M17.19 22.1082C17.97 22.8882 19.23 22.8882 20.01 22.1182L27.01 15.1882C27.56 14.6482 27.56 13.7682 27.02 13.2282L26.98 13.1882C26.44 12.6482 25.57 12.6482 25.03 13.1882L18.6 19.6182L16.95 17.9682C16.43 17.4482 15.57 17.4282 15.03 17.9482C14.46 18.4782 14.45 19.3682 15 19.9182L17.19 22.1082ZM27 26.2182H15C14.45 26.2182 14 26.6682 14 27.2182C14 27.7682 14.45 28.2182 15 28.2182H27C27.55 28.2182 28 27.7682 28 27.2182C28 26.6682 27.55 26.2182 27 26.2182Z" fill="#222631"/>
</svg>
