<svg width="16" height="16" viewBox="0 0 16 16" fill="none" xmlns="http://www.w3.org/2000/svg">
<path fill-rule="evenodd" clip-rule="evenodd" d="M2.41667 3.58333L1.20833 4.79167C0.95 5.05 0.5 4.86667 0.5 4.49167V0.916667C0.5 0.683333 0.683333 0.5 0.916667 0.5H4.49167C4.86667 0.5 5.05 0.95 4.79167 1.20833L3.58333 2.41667L5.4 4.21667C5.725 4.54167 5.725 5.075 5.4 5.4C5.075 5.725 4.54167 5.725 4.21667 5.4L2.41667 3.58333ZM12.4167 2.41667L11.2083 1.20833C10.95 0.95 11.1333 0.5 11.5083 0.5H15.0833C15.3167 0.5 15.5 0.683333 15.5 0.916667V4.49167C15.5 4.86667 15.05 5.05 14.7917 4.79167L13.5833 3.58333L11.7833 5.4C11.4583 5.725 10.925 5.725 10.6 5.4C10.275 5.075 10.275 4.54167 10.6 4.21667L12.4167 2.41667ZM4.79167 14.7916L3.58333 13.5832L5.4 11.7832C5.725 11.4582 5.725 10.9249 5.4 10.5999C5.075 10.2749 4.54167 10.2749 4.21667 10.5999L2.41667 12.4166L1.20833 11.2082C0.95 10.9499 0.5 11.1332 0.5 11.5082V15.0832C0.5 15.3166 0.683333 15.4999 0.916667 15.4999H4.49167C4.86667 15.4999 5.05 15.0499 4.79167 14.7916ZM13.5833 12.4166L14.7917 11.2082C15.05 10.9499 15.5 11.1332 15.5 11.5082V15.0832C15.5 15.3166 15.3167 15.4999 15.0833 15.4999H11.5083C11.1333 15.4999 10.95 15.0499 11.2083 14.7916L12.4167 13.5832L10.6 11.7832C10.275 11.4582 10.275 10.9249 10.6 10.5999C10.925 10.2749 11.4583 10.2749 11.7833 10.5999L13.5833 12.4166Z" fill="#B0BEC5"/>
</svg>
