<svg width="15" height="15" viewBox="0 0 15 15" fill="none" xmlns="http://www.w3.org/2000/svg">
<path d="M10.3333 1.125L13.875 4.66667L4.66667 13.875H1.125V10.3333L10.3333 1.125Z" stroke="white" stroke-linecap="round" stroke-linejoin="round"/>
</svg>
