<svg width="18" height="19" viewBox="0 0 18 19" fill="none" xmlns="http://www.w3.org/2000/svg">
<path fill-rule="evenodd" clip-rule="evenodd" d="M6.65781 0.73097L11.6578 2.48097C11.8878 2.56097 12.1278 2.55097 12.3478 2.47097L15.2778 1.33097C16.5878 0.82097 17.9978 1.78097 17.9978 3.19097V15.041C17.9978 15.901 17.4478 16.671 16.6378 16.941L12.6478 18.281C12.2278 18.421 11.7678 18.421 11.3478 18.271L6.34781 16.521C6.12781 16.441 5.87781 16.441 5.65781 16.531L2.72781 17.671C1.41781 18.181 0.0078125 17.221 0.0078125 15.811V3.96097C0.0078125 3.10097 0.557813 2.34097 1.36781 2.06097L5.35781 0.72097C5.77781 0.58097 6.23781 0.58097 6.65781 0.73097ZM6.00781 14.281L12.0078 16.391V4.72097L6.00781 2.61097V14.281Z" fill="#4E5B6D"/>
</svg>
