<svg width="13" height="14" viewBox="0 0 13 14" fill="none" xmlns="http://www.w3.org/2000/svg">
<g clip-path="url(#clip0_586_42970)">
<path d="M6.5 11.8125C6.40885 11.8123 6.31781 11.8063 6.22741 11.7946C5.3925 10.4568 4.93023 8.92018 4.88841 7.34375H12.1672C12.1769 7.20888 12.1875 7.07441 12.1875 6.9375C12.1875 5.81262 11.8539 4.713 11.229 3.7777C10.604 2.84239 9.71577 2.11341 8.67651 1.68294C7.63726 1.25246 6.49369 1.13983 5.39043 1.35929C4.28716 1.57874 3.27374 2.12042 2.47833 2.91583C1.68292 3.71124 1.14124 4.72466 0.921786 5.82793C0.702333 6.93119 0.814964 8.07476 1.24544 9.11401C1.67591 10.1533 2.40489 11.0415 3.3402 11.6665C4.2755 12.2914 5.37512 12.625 6.5 12.625V11.8125ZM11.3547 6.53125H8.92247C8.87878 5.03638 8.49637 3.57093 7.80406 2.24532C8.76218 2.51268 9.61571 3.06646 10.2503 3.83247C10.8849 4.59848 11.2702 5.54012 11.3547 6.53125ZM6.77219 2.08038C7.60724 3.41817 8.06965 4.95479 8.1116 6.53125H4.88841C4.93035 4.95479 5.39277 3.41817 6.22782 2.08038C6.40877 2.05664 6.59205 2.05664 6.773 2.08038H6.77219ZM5.19553 2.24491C4.50335 3.57069 4.12108 5.03628 4.07753 6.53125H1.64532C1.72984 5.54014 2.11519 4.59852 2.74977 3.83253C3.38436 3.06653 4.23785 2.51273 5.19594 2.24532L5.19553 2.24491ZM1.64532 7.34375H4.07753C4.12127 8.83862 4.50367 10.3041 5.19594 11.6297C4.23785 11.3623 3.38436 10.8085 2.74977 10.0425C2.11519 9.27648 1.72984 8.33486 1.64532 7.34375Z" fill="#B1BCC1"/>
<path fill-rule="evenodd" clip-rule="evenodd" d="M10.1562 10.5938L12.1875 11.4062V10.5938L10.1562 9.57812V8.5625C10.1562 8.45476 10.1134 8.35142 10.0373 8.27524C9.96108 8.19905 9.85774 8.15625 9.75 8.15625C9.64226 8.15625 9.53892 8.19905 9.46274 8.27524C9.38655 8.35142 9.34375 8.45476 9.34375 8.5625V9.57812L7.3125 10.5938V11.4062L9.34375 10.5938V12.0156L8.53125 12.625V13.0312L9.75 12.625L10.9688 13.0312V12.625L10.1562 12.0156V10.5938Z" fill="#B1BCC1"/>
</g>
<defs>
<clipPath id="clip0_586_42970">
<rect width="13" height="13" fill="white" transform="translate(0 0.4375)"/>
</clipPath>
</defs>
</svg>
