<svg width="29" height="29" viewBox="0 0 29 29" fill="none" xmlns="http://www.w3.org/2000/svg">
<path d="M14.5349 0.96431L14.5001 0.930153L14.4651 0.964106L0.965192 14.0555L0.95 14.0703V14.0914V27.7059V27.803L1.02904 27.7466L14.1817 18.3642L27.8913 27.961L27.97 28.016V27.92V14.1674V14.1464L27.955 14.1317L14.5349 0.96431ZM14.8208 9.56553L24.7553 13.7296H14.8208V9.56553ZM25.4051 12.987L14.8208 8.55024V2.60311L25.4051 12.987ZM13.8716 8.15216L10.0831 6.56476L13.8733 2.89045L13.8716 8.15216ZM9.35221 7.27344L13.8716 9.16743V13.7296H2.69344L9.35221 7.27344ZM13.2458 14.6634L1.92974 25.367V14.6634H13.2458ZM13.6602 17.5522L5.13326 23.6319L13.7867 15.4512L13.6602 17.5522ZM14.6148 17.4897L14.7486 15.278L23.8148 23.9269L14.6148 17.4897ZM26.9932 25.6626L15.4716 14.6662H26.9932V25.6626Z" fill="#446063" stroke="white" stroke-width="0.1"/>
</svg>
